%YAML 1.1
%TAG !u! tag:unity3d.com,2011:
--- !u!221 &22100000
AnimatorOverrideController:
  m_ObjectHideFlags: 0
  m_PrefabParentObject: {fileID: 0}
  m_PrefabInternal: {fileID: 0}
  m_Name: Brandstifter
  m_Controller: {fileID: 9100000, guid: e922d8ff5c8c7994d96903fba15e51f5, type: 2}
  m_Clips:
  - m_OriginalClip: {fileID: 7400000, guid: 426894b1c6613bb4db1075bc02a7e14e, type: 2}
    m_OverrideClip: {fileID: 7400000, guid: 67cd63c5b91ee7b46a4f07d0e2b9a4eb, type: 2}
  - m_OriginalClip: {fileID: 7400000, guid: cd32eb38c666eb34d8fc4a68633339ad, type: 2}
    m_OverrideClip: {fileID: 7400000, guid: fba65e0a28bc8cc438fdd94f114ecf39, type: 2}
  - m_OriginalClip: {fileID: 7400000, guid: b005d5a379d660241b4ad0ffb14bca03, type: 2}
    m_OverrideClip: {fileID: 7400000, guid: 7f616e18f6df0de49abb5a95b764c6f9, type: 2}
  - m_OriginalClip: {fileID: 7400000, guid: 4f7e3ceb25c670541a6c5ea74fc7b778, type: 2}
    m_OverrideClip: {fileID: 7400000, guid: 66f971c9ad572f543987059977df6604, type: 2}
  - m_OriginalClip: {fileID: 7400000, guid: 93e2d3dfd692f264a91ec41a91e2e17f, type: 2}
    m_OverrideClip: {fileID: 7400000, guid: 4dbf12b19f6c1904cb8f97fd76e3bab9, type: 2}
  - m_OriginalClip: {fileID: 7400000, guid: 0df6d8f84b396804c9c37fede9c12da1, type: 2}
    m_OverrideClip: {fileID: 7400000, guid: 7ed9669fea990784db84ce7af2c5b845, type: 2}
  - m_OriginalClip: {fileID: 7400000, guid: 80a2cdd7b721b2b4f8ec35196a7ac945, type: 2}
    m_OverrideClip: {fileID: 7400000, guid: 25c3d9e11338c69409bc5efff52a61a9, type: 2}
  - m_OriginalClip: {fileID: 7400000, guid: b6a804b608d41c647a24686f40109fcb, type: 2}
    m_OverrideClip: {fileID: 7400000, guid: 8794df70790d45645a2ca056ef0b4be8, type: 2}
